{
  "project_info": {
    "project_number": "730969775876",
    "project_id": "igift-cf3ef",
    "storage_bucket": "igift-cf3ef.appspot.com"
  },
  "client": [
    {
      "client_info": {
        "mobilesdk_app_id": "1:730969775876:android:cd16ece2fbca35ea0aba51",
        "android_client_info": {
          "package_name": "com.example.igift"
        }
      },
      "oauth_client": [
        {
          "client_id": "730969775876-vd6pvoi6k8d4rk038777e8stlfcoh065.apps.googleusercontent.com",
          "client_type": 3
        }
      ],
      "api_key": [
        {
          "current_key": "AIzaSyAQXuZsMMt25bcf_3mf-uJZZOxK3atsC4Q"
        }
      ],
      "services": {
        "appinvite_service": {
          "other_platform_oauth_client": [
            {
              "client_id": "730969775876-vd6pvoi6k8d4rk038777e8stlfcoh065.apps.googleusercontent.com",
              "client_type": 3
            },
            {
              "client_id": "730969775876-en7d5ghr4mfovlg4ql1nvcd5rt7c0j8i.apps.googleusercontent.com",
              "client_type": 2,
              "ios_info": {
                "bundle_id": "com.example.igift"
              }
            }
          ]
        }
      }
    }
  ],
  "configuration_version": "1"
}